<svg version="1.1" id="Calque_1" xmlns="http://www.w3.org/2000/svg" xmlns:xlink="http://www.w3.org/1999/xlink" x="0px" y="0px"
	 width="51.728px" height="53.054px" viewBox="0 0 51.728 53.054" enable-background="new 0 0 51.728 53.054" xml:space="preserve">
<line fill="none" stroke="#AD1917" stroke-width="8.9365" stroke-miterlimit="10" x1="30.893" y1="30.963" x2="46.329" y2="46.399"/>
<circle fill="#FFFFFF" stroke="#E42018" stroke-width="5.3619" stroke-miterlimit="10" cx="20.386" cy="20.17" r="15.894"/>
<g>
	<path fill="#010202" d="M14.465,23.885c-0.508,0-0.99-0.031-1.444-0.093c-0.456-0.061-0.863-0.201-1.222-0.42
		c-0.36-0.219-0.644-0.534-0.854-0.946c-0.21-0.411-0.315-0.977-0.315-1.695c0-0.771,0.105-1.375,0.315-1.813
		c0.21-0.438,0.49-0.762,0.841-0.972c0.35-0.21,0.752-0.341,1.209-0.394c0.455-0.052,0.928-0.079,1.418-0.079h2.575V14.9
		c0-0.438,0.026-0.885,0.079-1.34c0.052-0.455,0.184-0.862,0.394-1.222c0.21-0.359,0.534-0.652,0.972-0.88
		c0.438-0.228,1.042-0.342,1.813-0.342c0.7,0,1.261,0.114,1.681,0.342c0.421,0.228,0.74,0.521,0.959,0.88
		c0.219,0.36,0.359,0.767,0.421,1.222c0.061,0.456,0.092,0.902,0.092,1.34v2.574h2.628c0.437,0,0.884,0.026,1.34,0.079
		c0.456,0.053,0.863,0.184,1.222,0.394c0.359,0.21,0.653,0.534,0.881,0.972c0.227,0.438,0.341,1.042,0.341,1.813
		c0,0.718-0.114,1.284-0.341,1.695c-0.228,0.412-0.522,0.727-0.881,0.946c-0.359,0.219-0.766,0.359-1.222,0.42
		c-0.456,0.062-0.902,0.093-1.34,0.093h-2.628v2.627c0,0.49-0.031,0.963-0.092,1.419c-0.062,0.456-0.202,0.859-0.421,1.209
		c-0.219,0.351-0.538,0.63-0.959,0.84c-0.42,0.21-0.981,0.315-1.681,0.315c-0.771,0-1.375-0.105-1.813-0.315
		c-0.438-0.21-0.762-0.49-0.972-0.84c-0.209-0.35-0.341-0.753-0.394-1.209c-0.052-0.456-0.079-0.929-0.079-1.419v-2.627h-1.997
		H14.465z"/>
</g>
</svg>
