<svg version="1.1" id="Calque_1" xmlns="http://www.w3.org/2000/svg" xmlns:xlink="http://www.w3.org/1999/xlink" x="0px" y="0px"
	 width="51.728px" height="53.054px" viewBox="0 0 51.728 53.054" enable-background="new 0 0 51.728 53.054" xml:space="preserve">
<line fill="none" stroke="#AD1917" stroke-width="8.9365" stroke-miterlimit="10" x1="20.789" y1="20.902" x2="5.352" y2="5.465"/>
<circle fill="#FFFFFF" stroke="#E42018" stroke-width="5.3619" stroke-miterlimit="10" cx="31.296" cy="31.695" r="15.894"/>
<g>
	<path fill="#010202" d="M25.959,34.882c-0.487,0-0.958-0.03-1.41-0.092c-0.454-0.061-0.854-0.199-1.202-0.418
		c-0.349-0.217-0.627-0.531-0.836-0.94c-0.209-0.409-0.313-0.97-0.313-1.685c0-0.767,0.104-1.368,0.313-1.803
		c0.209-0.435,0.487-0.758,0.836-0.966c0.349-0.209,0.748-0.34,1.202-0.392c0.452-0.053,0.923-0.078,1.41-0.078h11.549
		c0.435,0,0.879,0.026,1.332,0.078c0.453,0.053,0.858,0.183,1.215,0.392c0.357,0.209,0.649,0.532,0.875,0.966
		c0.226,0.436,0.34,1.036,0.34,1.803c0,0.714-0.113,1.276-0.34,1.685c-0.226,0.41-0.518,0.723-0.875,0.94
		c-0.357,0.219-0.762,0.357-1.215,0.418c-0.453,0.062-0.897,0.092-1.332,0.092H27.422H25.959z"/>
</g>
</svg>
